{
  "packages": [
    "packages/*",
    "apps/*"
  ],
  "command": {
    "publish": {
      "ignoreChanges": [
        "apps/*",
        "ignored-file",
        "*.md"
      ],
      "message": "chore(release): publish release"
    },
    "bootstrap": {
      "npmClientArgs": [
        "--no-package-lock"
      ]
    }
  },
  "npmClient": "yarn",
  "useWorkspaces": true,
  "version": "independent"
}
