// Jest Snapshot v1, https://goo.gl/fbAQLP

exports[`The \`Dialog\` component renders correctly 1`] = `
<WithStyles(ForwardRef(Dialog))
  classes={
    Object {
      "content": "",
    }
  }
  open={false}
>
  test
</WithStyles(ForwardRef(Dialog))>
`;
